-24 -16 936
-48 64 -8 848
-48 56 -104 -72 8 -88 568
992
-32 952
992
-8 -16 -24 -120 -80 -96 -72 -64 -96 344
-56 -72 -80 760
-32 -120 824
-32 -56 -96 -104 -16 648
992
-16 120 -72 -112 -64 -72 488
-96 -16 -64 -24 -88 -96 -120 -64 48 -104 192
80 -120 88 -120 552
24 -32 -72 -48 784
-48 -104 -48 32 -120 -16 -112 456
992
-80 -48 848
16 -32 -16 904
-88 -24 72 -40 -56 672
-64 -48 56 -120 -104 -112 -88 344
-40 944
-40 944
-104 -48 -8 -8 -56 728
-48 -40 -88 792
