23

8
-3
6
12
5
10
-2
-4
-7
-7

-3
-5
9
14
6

10
4
-9
-1
7
8
-8
-10
-1
13
-9
12
2
2

-2
-1
9
13
-9
-9
-2
4
3
-7
-10
-2

-8
-1
-10
5
3
-6
8
-3
-3
10
14
-8

2
2
9
-1
10
9
2
3
-4
2
-6
10
-5

4
7
1
3
-2
13
-5
11
-5
-6

5
-8
13
4
1
4
-6
-1

-8
-7
7
-5
-2
7
-6
12

-1
-9
-2
5
2
-9
9
-3
3
15

10
-7
-5

11
-5
5
-6
9

-7
1
6
1
9
14
-10
7
-4
3
7
5

15
4
5
2
10
12

11
11
-8
-8
-1
-5

-4
1
1
2
-8
-2
2
8
-8
2
13

3
12
13
13
-5
10
-10
14
-7
7
-10
-9

-8
3
2

2
-2
14
9
11
15
6
-4
-7

14
7
-2
3
11
12
3
4

-7
4
-8
-1
6
14
-2
5

-6
11

-4
1
3
-6
-2
-8
4
-9
-9
