25

2
-5
4
-9
3
-9
9
-2
6
-7

-1
2
-6
4
-10
9
-3
-1
7
6

1
-4
-1
6
-7
-4
-10
5
7
10

6
4
-5
4
3
-1
-1
-10
1
-8

2
-4
1
1
-7
2
-6
3
-1
-6

9
3
7
1
8
-2
-3
-9
-4
-8

8
4
-9
8
-6
6
-5
2
-3
1

-8
8
-1
-4
5
-3
-4
4
7
1

2
-6
4
-5
-7
-10
6
-4
3
8

5
-9
-1
2
-6
4
-2
9
-1
1

-5
5
8
5
4
1
2
9
1
10

-2
-1
4
10
3
9
1
-3
-1
2

3
6
10
-9
-6
8
-1
-2
-6
10

6
4
-6
2
-10
-3
-9
-2
-5
7

-3
9
-7
-10
-6
-4
1
5
8
-6

-6
4
-8
2
-10
-7
-9
-5
-8
1

-1
6
-2
10
3
1
5
-5
7
-7

-7
10
5
6
6
3
4
-9
-2
-3

1
-5
-2
-6
1
1
5
-3
-8
-5

8
9
4
-6
7
-9
-6
1
1
-4

3
-4
-10
3
6
-4
-5
-9
4
1

-1
-5
8
8
5
7
5
2
-10
-9

-9
-6
-4
-8
-1
3
-1
-10
-7
8

9
-2
2
-6
-2
-9
-9
-6
5
1

7
-9
3
3
-9
-9
-5
10
1
-5
