-48 -24 -80 -16 -96 688
80 -88 808
-8 -24 -40 -64 -120 -32 -16 632
-88 -88 -24 -16 -16 720
16 -24 -48 -88 784
-120 -32 104 -56 -16 -16 -80 512
-16 -24 -120 -120 -96 576
-48 -40 -56 -8 -40 760
-64 -48 -64 -48 -112 616
-24 8 -104 -48 -56 -32 -32 632
-48 -40 -64 816
-32 72 -104 760
992
-24 -8 -8 40 -56 816
56 -88 120 -80 616
-72 -104 800
-56 -48 -48 816
-104 -8 -64 792
-8 -16 8 -88 840
-88 -48 -24 -88 -16 688
-40 -104 832
-32 64 -16 -112 736
-48 -32 896
-16 -96 -80 72 -96 -104 480
-88 -24 -16 -24 -32 768
-112 -120 -16 720
-80 -16 -48 -32 32 -24 -104 600
